# Blender v3.0.1 OBJ File: 'room.blend'
# www.blender.org
mtllib room.mtl
o Plane
v -1.000000 0.895185 -1.000000
v -2.240003 0.895185 1.000000
v -2.240003 0.895185 -1.000000
v -1.000000 0.895185 1.000000
v -1.000000 0.000000 1.000000
v 1.000000 0.895185 1.000000
v -1.000000 0.895185 1.000000
v -1.000000 0.000000 -1.000000
v 1.000000 0.000000 -1.000000
v -1.000000 0.895185 -1.000000
v 1.000000 0.895185 -1.000000
v 1.000000 0.000000 1.000000
v -1.000000 0.000000 1.000000
v 1.000000 0.000000 1.000000
v -1.000000 0.000000 -1.000000
v 1.000000 0.000000 -1.000000
v 1.000000 0.000000 1.000000
v 1.000000 0.000000 -1.000000
v 1.000000 0.895185 1.000000
v 1.000000 0.895185 -1.000000
v 1.000000 -0.834901 1.000000
v 1.000000 -0.834901 -1.000000
v 1.000000 0.000000 1.747908
v 1.000000 0.895185 1.747908
v 1.000000 -0.834901 1.747908
v 1.000000 0.000000 -1.818601
v 1.000000 0.895185 -1.818601
v 1.000000 -0.834901 -1.818601
vt 0.662647 0.360554
vt 0.665682 0.847055
vt 0.967313 0.845173
vt 0.333694 -0.002832
vt 0.667001 -0.002832
vt 0.667001 0.146479
vt 1.000309 -0.002832
vt 1.000308 0.146479
vt 0.000386 -0.002832
vt 0.333693 0.146479
vt 0.546446 0.488300
vt 0.057438 0.488392
vt 0.057531 0.977400
vt 0.161054 0.304518
vt 0.460734 0.304494
vt 0.460723 0.179393
vt 0.572800 0.304485
vt 0.460744 0.438628
vt 0.572811 0.438619
vt 0.161044 0.179417
vt 0.038385 0.179427
vt 0.161065 0.438653
vt 0.038396 0.304528
vt 0.964278 0.358673
vt 0.000386 0.146479
vt 0.546538 0.977308
vt 0.572790 0.179384
vt 0.038406 0.438663
usemtl Material.003
s off
f 4/1 1/2 3/3
f 5/4 8/5 10/6
f 8/5 9/7 11/8
f 12/9 5/4 7/10
f 15/11 13/12 14/13
f 18/14 17/15 21/16
f 21/16 17/15 23/17
f 17/15 19/18 24/19
f 18/14 22/20 28/21
f 20/22 18/14 26/23
f 4/1 3/3 2/24
f 5/4 10/6 7/10
f 8/5 11/8 10/6
f 12/9 7/10 6/25
f 15/11 14/13 16/26
f 18/14 21/16 22/20
f 21/16 23/17 25/27
f 17/15 24/19 23/17
f 18/14 28/21 26/23
f 20/22 26/23 27/28
