[gd_scene load_steps=5 format=2]

[ext_resource path="res://tres/hud_text.tres" type="DynamicFont" id=1]
[ext_resource path="res://addons/silent_wolf/assets/fonts/Comfortaa-Bold.ttf" type="DynamicFontData" id=2]

[sub_resource type="StyleBoxFlat" id=1]
bg_color = Color( 0.831373, 0.415686, 0.415686, 1 )

[sub_resource type="DynamicFont" id=3]
size = 40
use_mipmaps = true
use_filter = true
font_data = ExtResource( 2 )

[node name="ScoreItem" type="Panel"]
margin_right = 300.0
margin_bottom = 76.0
grow_horizontal = 0
grow_vertical = 0
rect_min_size = Vector2( 300, 76 )
custom_styles/panel = SubResource( 1 )
__meta__ = {
"_edit_use_anchors_": false
}

[node name="PlayerName" type="RichTextLabel" parent="."]
margin_left = 22.0
margin_top = 18.0
margin_right = 323.0
margin_bottom = 73.0
custom_fonts/normal_font = ExtResource( 1 )
text = "1. Godzilla"

[node name="Score" type="Label" parent="."]
margin_left = 209.0
margin_top = 35.0
margin_right = 294.0
margin_bottom = 83.0
custom_fonts/font = SubResource( 3 )
text = "13"
align = 2
valign = 1
__meta__ = {
"_edit_use_anchors_": false
}
